…
### skim_df object (long format)

``` r
library(skimr)
   
## full data frame   
skim(chickwts)   
# A tibble: 22 × 5
#       var    type     stat level    value
# *   <chr>   <chr>    <chr> <chr>    <dbl>
# 1  weight numeric  missing  .all   0.0000
# 2  weight numeric complete  .all  71.0000
# 3  weight numeric        n  .all  71.0000
# 4  weight numeric     mean  .all 261.3099
# 5  weight numeric       sd  .all  78.0737
# 6  weight numeric      min  .all 108.0000
# 7  weight numeric   median  .all 258.0000
# 8  weight numeric quantile   25% 204.5000
# 9  weight numeric quantile   75% 323.5000
# 10 weight numeric      max  .all 423.0000
# ... with 12 more rows
…
