Using Skimr
…
## Warning: `cols` is now required.
## Please use `cols = c(skimmed)`

## Warning: `cols` is now required.
## Please use `cols = c(by_variable)`

## Warning: `cols` is now required.
## Please use `cols = c(by_variable)`

## Warning: `cols` is now required.
## Please use `cols = c(skimmed)`

## # A tibble: 131 x 4
##    skim_type skim_variable     stat      formatted
##    <chr>     <chr>             <chr>     <chr>    
##  1 character skim_type         n_missing 0        
##  2 character skim_variable     n_missing 0        
##  3 character factor.top_counts n_missing 4        
##  4 character numeric.hist      n_missing 1        
##  5 logical   factor.ordered    n_missing 4        
##  6 numeric   n_missing         n_missing 0        
##  7 numeric   complete_rate     n_missing 0        
##  8 numeric   factor.n_unique   n_missing 4        
##  9 numeric   numeric.mean      n_missing 1        
## 10 numeric   numeric.sd        n_missing 1        
## # … with 121 more rows
…
